[gd_scene load_steps=3 format=2]

[ext_resource path="res://Movement/MoveAnimation.tscn" type="PackedScene" id=1]

[sub_resource type="Animation" id=1]
resource_local_to_scene = true
resource_name = "animation"
length = 0.7
tracks/0/type = "value"
tracks/0/path = NodePath("BasePlayer:position")
tracks/0/interp = 1
tracks/0/loop_wrap = true
tracks/0/imported = false
tracks/0/enabled = true
tracks/0/keys = {
"times": PoolRealArray( 0, 0.2, 0.6 ),
"transitions": PoolRealArray( 1, 1, 1 ),
"update": 0,
"values": [ Vector2( 0, 0 ), Vector2( 24, 0 ), Vector2( 48, 0 ) ]
}
tracks/1/type = "value"
tracks/1/path = NodePath("BasePlayer/Sprite:frame")
tracks/1/interp = 1
tracks/1/loop_wrap = true
tracks/1/imported = false
tracks/1/enabled = true
tracks/1/keys = {
"times": PoolRealArray( 0, 0.1, 0.2, 0.3, 0.4, 0.5, 0.6 ),
"transitions": PoolRealArray( 1, 1, 1, 1, 1, 1, 1 ),
"update": 1,
"values": [ 0, 1, 2, 3, 4, 5, 6 ]
}
tracks/2/type = "value"
tracks/2/path = NodePath("BasePlayer/Sprite:flip_h")
tracks/2/interp = 1
tracks/2/loop_wrap = true
tracks/2/imported = false
tracks/2/enabled = true
tracks/2/keys = {
"times": PoolRealArray(  ),
"transitions": PoolRealArray(  ),
"update": 1,
"values": [  ]
}
tracks/3/type = "value"
tracks/3/path = NodePath("BasePlayer/Sprite:animation")
tracks/3/interp = 1
tracks/3/loop_wrap = true
tracks/3/imported = false
tracks/3/enabled = true
tracks/3/keys = {
"times": PoolRealArray( 0 ),
"transitions": PoolRealArray( 1 ),
"update": 1,
"values": [ "roll" ]
}

[node name="RollAnimation" instance=ExtResource( 1 )]

[node name="Animator" parent="." index="1"]
anims/animation = SubResource( 1 )

[editable path="BasePlayer"]
